-------------------------------------------------------------------------------
Test set: de.thb.fim.StudierendenverwaltungssystemsTest
-------------------------------------------------------------------------------
Tests run: 1, Failures: 0, Errors: 0, Skipped: 0, Time elapsed: 0 s - in de.thb.fim.StudierendenverwaltungssystemsTest
