/Users/fcoulibaly/Documents/OneDrive - NetworkedAssets GmbH/Masterarbeit/gitlab/masterarbeit/src/test/java/de/thb/fim/repository/StudierendenRepositoryTest.java
/Users/fcoulibaly/Documents/OneDrive - NetworkedAssets GmbH/Masterarbeit/gitlab/masterarbeit/src/test/java/de/thb/fim/StudierendenverwaltungssystemsTest.java
/Users/fcoulibaly/Documents/OneDrive - NetworkedAssets GmbH/Masterarbeit/gitlab/masterarbeit/src/test/java/de/thb/fim/service/StudierendenServiceTest.java
/Users/fcoulibaly/Documents/OneDrive - NetworkedAssets GmbH/Masterarbeit/gitlab/masterarbeit/src/test/java/de/thb/fim/web_controller/StudierendenControllerTest.java
/Users/fcoulibaly/Documents/OneDrive - NetworkedAssets GmbH/Masterarbeit/gitlab/masterarbeit/src/test/java/de/thb/fim/model/StudierendenEntityTest.java
/Users/fcoulibaly/Documents/OneDrive - NetworkedAssets GmbH/Masterarbeit/gitlab/masterarbeit/src/test/java/de/thb/fim/integrationstest_web_controller/StudierendenControllerIntegrationTest.java
